HW 3 Solutions
…
We can see from the bottom heatmap that G is the most represented color among Fair diamonds, and J is the least represented color. However, we cant see this information from the top heatmap; in the row for Fair diamonds all the tiles have the same very dark blue color. Thats because the better cuts of diamond (Ideal, Premium, etc.) have much higher counts and are hogging the rest of the color spectrum.

There are two main ways of dealing with this problem: standardizing and log-transforming. Both are acceptable. First we will discuss standardizing.

Standardizing is when we put all of the diamond cuts on the same scale, so that the Ideal diamonds dont hog all the bright colors. We do this using percentages. Instead of getting the count of each (color, cut) pairing, we will take each cut, and find what percent of diamonds with that cut are each color. Then well make a heatmap based on that:

percentages = diamonds %>% 
    count(color, cut) %>% 
    group_by(cut) %>% 
    mutate(cut_count=sum(n), percentage = 100*n/cut_count) %>%
    arrange(cut)

percentages

## # A tibble: 35 x 5
## # Groups:   cut [5]
##    color cut       n cut_count percentage
##    <ord> <ord> <int>     <int>      <dbl>
##  1 D     Fair    163      1610      10.1 
##  2 E     Fair    224      1610      13.9 
##  3 F     Fair    312      1610      19.4 
##  4 G     Fair    314      1610      19.5 
##  5 H     Fair    303      1610      18.8 
##  6 I     Fair    175      1610      10.9 
##  7 J     Fair    119      1610       7.39
##  8 D     Good    662      4906      13.5 
##  9 E     Good    933      4906      19.0 
## 10 F     Good    909      4906      18.5 
## # ... with 25 more rows
…
