Lecture 4 Workspace
…
Lecture 4 Workspace

Mario Giacomazzo

August 25, 2018

flights

## # A tibble: 336,776 x 19
##     year month   day dep_time sched_dep_time dep_delay arr_time
##    <int> <int> <int>    <int>          <int>     <dbl>    <int>
##  1  2013     1     1      517            515         2      830
##  2  2013     1     1      533            529         4      850
##  3  2013     1     1      542            540         2      923
##  4  2013     1     1      544            545        -1     1004
##  5  2013     1     1      554            600        -6      812
##  6  2013     1     1      554            558        -4      740
##  7  2013     1     1      555            600        -5      913
##  8  2013     1     1      557            600        -3      709
##  9  2013     1     1      557            600        -3      838
## 10  2013     1     1      558            600        -2      753
## # ... with 336,766 more rows, and 12 more variables: sched_arr_time <int>,
## #   arr_delay <dbl>, carrier <chr>, flight <int>, tailnum <chr>,
## #   origin <chr>, dest <chr>, air_time <dbl>, distance <dbl>, hour <dbl>,
## #   minute <dbl>, time_hour <dttm>
…
mean(male.age)

## [1] NA

mean(male.age,na.rm=T)

## [1] 24.5

filter(flights,is.na(air_time))

## Warning: package 'bindrcpp' was built under R version 3.5.1

## # A tibble: 9,430 x 19
##     year month   day dep_time sched_dep_time dep_delay arr_time
##    <int> <int> <int>    <int>          <int>     <dbl>    <int>
##  1  2013     1     1     1525           1530        -5     1934
##  2  2013     1     1     1528           1459        29     2002
##  3  2013     1     1     1740           1745        -5     2158
##  4  2013     1     1     1807           1738        29     2251
##  5  2013     1     1     1939           1840        59       29
##  6  2013     1     1     1952           1930        22     2358
##  7  2013     1     1     2016           1930        46       NA
##  8  2013     1     1       NA           1630        NA       NA
##  9  2013     1     1       NA           1935        NA       NA
## 10  2013     1     1       NA           1500        NA       NA
## # ... with 9,420 more rows, and 12 more variables: sched_arr_time <int>,
## #   arr_delay <dbl>, carrier <chr>, flight <int>, tailnum <chr>,
## #   origin <chr>, dest <chr>, air_time <dbl>, distance <dbl>, hour <dbl>,
## #   minute <dbl>, time_hour <dttm>

filter(flights,!is.na(air_time))

## # A tibble: 327,346 x 19
##     year month   day dep_time sched_dep_time dep_delay arr_time
##    <int> <int> <int>    <int>          <int>     <dbl>    <int>
##  1  2013     1     1      517            515         2      830
##  2  2013     1     1      533            529         4      850
##  3  2013     1     1      542            540         2      923
##  4  2013     1     1      544            545        -1     1004
##  5  2013     1     1      554            600        -6      812
##  6  2013     1     1      554            558        -4      740
##  7  2013     1     1      555            600        -5      913
##  8  2013     1     1      557            600        -3      709
##  9  2013     1     1      557            600        -3      838
## 10  2013     1     1      558            600        -2      753
## # ... with 327,336 more rows, and 12 more variables: sched_arr_time <int>,
## #   arr_delay <dbl>, carrier <chr>, flight <int>, tailnum <chr>,
## #   origin <chr>, dest <chr>, air_time <dbl>, distance <dbl>, hour <dbl>,
## #   minute <dbl>, time_hour <dttm>

na.omit(flights)

## # A tibble: 327,346 x 19
##     year month   day dep_time sched_dep_time dep_delay arr_time
##    <int> <int> <int>    <int>          <int>     <dbl>    <int>
##  1  2013     1     1      517            515         2      830
##  2  2013     1     1      533            529         4      850
##  3  2013     1     1      542            540         2      923
##  4  2013     1     1      544            545        -1     1004
##  5  2013     1     1      554            600        -6      812
##  6  2013     1     1      554            558        -4      740
##  7  2013     1     1      555            600        -5      913
##  8  2013     1     1      557            600        -3      709
##  9  2013     1     1      557            600        -3      838
## 10  2013     1     1      558            600        -2      753
## # ... with 327,336 more rows, and 12 more variables: sched_arr_time <int>,
## #   arr_delay <dbl>, carrier <chr>, flight <int>, tailnum <chr>,
## #   origin <chr>, dest <chr>, air_time <dbl>, distance <dbl>, hour <dbl>,
## #   minute <dbl>, time_hour <dttm>
…
flights1=transmute(flights,
          dep_time,
          hour=dep_time%/%100,
          minute=dep_time%%100)
flights1

## # A tibble: 336,776 x 3
##    dep_time  hour minute
##       <int> <dbl>  <dbl>
##  1      517     5     17
##  2      533     5     33
##  3      542     5     42
##  4      544     5     44
##  5      554     5     54
##  6      554     5     54
##  7      555     5     55
##  8      557     5     57
##  9      557     5     57
## 10      558     5     58
## # ... with 336,766 more rows

flights2=transmute(flights1,
          dep_time,
          hour,
          minute,
          hrs_since_midnight=hour+minute/60)
flights2

## # A tibble: 336,776 x 4
##    dep_time  hour minute hrs_since_midnight
##       <int> <dbl>  <dbl>              <dbl>
##  1      517     5     17               5.28
##  2      533     5     33               5.55
##  3      542     5     42               5.7 
##  4      544     5     44               5.73
##  5      554     5     54               5.9 
##  6      554     5     54               5.9 
##  7      555     5     55               5.92
##  8      557     5     57               5.95
##  9      557     5     57               5.95
## 10      558     5     58               5.97
## # ... with 336,766 more rows
…
flights5=transmute(flights,
            dep_delay,
            lag1_dep_delay=lag(dep_delay))
flights5

## # A tibble: 336,776 x 2
##    dep_delay lag1_dep_delay
##        <dbl>          <dbl>
##  1         2             NA
##  2         4              2
##  3         2              4
##  4        -1              2
##  5        -6             -1
##  6        -4             -6
##  7        -5             -4
##  8        -3             -5
##  9        -3             -3
## 10        -2             -3
## # ... with 336,766 more rows
…
flights6<-transmute(filter(flights,origin=="LGA",
            dest=="CLE",carrier=="UA"),dep_delay,
            rollsum_dep_delay=cumsum(dep_delay),
            time_hour)
flights6

## # A tibble: 305 x 3
##    dep_delay rollsum_dep_delay time_hour          
##        <dbl>             <dbl> <dttm>             
##  1         0                 0 2013-01-01 15:00:00
##  2        -1                -1 2013-01-02 15:00:00
##  3         4                 3 2013-01-03 15:00:00
##  4         3                 6 2013-01-04 15:00:00
##  5        -6                 0 2013-01-06 15:00:00
##  6        -5                -5 2013-01-07 15:00:00
##  7        -7               -12 2013-01-08 15:00:00
##  8        -5               -17 2013-01-09 15:00:00
##  9        -9               -26 2013-01-10 15:00:00
## 10        -9               -35 2013-01-11 15:00:00
## # ... with 295 more rows
…
options(scipen=999)
flights7<-arrange(transmute(filter(flights,
            origin=="LGA",dest=="CLE",
            carrier=="UA"),air=air_time,
              rank_air=min_rank(air_time),
              percentile=percent_rank(air_time),
              ecdf_air=cume_dist(air_time),
              airtile5=ntile(air,5)),
              air)
flights7

## # A tibble: 305 x 5
##      air rank_air percentile ecdf_air airtile5
##    <dbl>    <int>      <dbl>    <dbl>    <int>
##  1    58        1     0        0.0133        1
##  2    58        1     0        0.0133        1
##  3    58        1     0        0.0133        1
##  4    58        1     0        0.0133        1
##  5    59        5     0.0134   0.0233        1
##  6    59        5     0.0134   0.0233        1
##  7    59        5     0.0134   0.0233        1
##  8    60        8     0.0234   0.0467        1
##  9    60        8     0.0234   0.0467        1
## 10    60        8     0.0234   0.0467        1
## # ... with 295 more rows
…
